{
  "project_info": {
    "project_number": "876021131801",
    "firebase_url": "https://vivookapp.firebaseio.com",
    "project_id": "vivookapp",
    "storage_bucket": "vivookapp.appspot.com"
  },
  "client": [
    {
      "client_info": {
        "mobilesdk_app_id": "1:876021131801:android:ba4dfc1e82ef3f0e",
        "android_client_info": {
          "package_name": "io.cordova.myapp0661c1"
        }
      },
      "oauth_client": [
        {
          "client_id": "876021131801-j2c04rshbksg152ui93mahbknimrhjvl.apps.googleusercontent.com",
          "client_type": 3
        }
      ],
      "api_key": [
        {
          "current_key": "AIzaSyAkQ5gnNFUYaVuFhlnlGQNETvpSpIbnw_4"
        }
      ],
      "services": {
        "analytics_service": {
          "status": 1
        },
        "appinvite_service": {
          "status": 1,
          "other_platform_oauth_client": []
        },
        "ads_service": {
          "status": 2
        }
      }
    }
  ],
  "configuration_version": "1"
}