<?xml version="1.0" encoding="utf-8"?>
<!-- Generator: Adobe Illustrator 21.0.2, SVG Export Plug-In . SVG Version: 6.00 Build 0)  -->
<svg version="1.1" id="Capa_1" xmlns="http://www.w3.org/2000/svg" xmlns:xlink="http://www.w3.org/1999/xlink" x="0px" y="0px"
	 viewBox="0 0 40 40" style="enable-background:new 0 0 40 40;" xml:space="preserve">
<style type="text/css">
	.st0{fill:#E2E2E2;}
	.st1{clip-path:url(#SVGID_2_);fill-rule:evenodd;clip-rule:evenodd;fill:#FFFFFF;}
</style>
<g>
	<g>
		<g>
			<path class="st0" d="M40,31.3c0,4.6-3.7,8.3-8.3,8.3h-23c-4.6,0-8.3-3.7-8.3-8.3v-23C0.4,3.7,4.1,0,8.7,0h23
				C36.3,0,40,3.7,40,8.3V31.3z"/>
		</g>
	</g>
	<g>
		<defs>
			<path id="SVGID_1_" d="M39.8,31.6c0,4.6-3.7,8.3-8.3,8.3h-23c-4.6,0-8.3-3.7-8.3-8.3v-23c0-4.6,3.7-8.3,8.3-8.3h23
				c4.6,0,8.3,3.7,8.3,8.3V31.6z"/>
		</defs>
		<clipPath id="SVGID_2_">
			<use xlink:href="#SVGID_1_"  style="overflow:visible;"/>
		</clipPath>
		<path class="st1" d="M36.2,39.9c-0.6-3.9-2.1-13.5-2.1-13.5c-0.9-1.9-6.3-3.6-6.3-3.6c-2-0.9-2.7-1.6-2.8-1.9
			c-0.2-0.4-0.4-0.9-0.3-1.5c0.7-0.9,1.2-1.9,1.6-2.9l0,0.1c0.6-0.6,1.1-2.1,1.1-2.1c0.5-1.4,0.2-2-0.1-2.2c0.4-1.5,0.7-4.1-0.9-5.9
			c0,0-0.9-1.3-1.5-1.6c-0.7-0.4-2.2-1-2.2-1s-0.3,0.6-0.4,0.5c0,0-0.4-0.1-1.4-1.2c0,0-0.9,0.2-1.2,0.5L19,3.4l-0.2,0.4l-0.8-0.4
			c0,0-0.9,0.5-1.4,0.6c0,0-2.6,0.9-3.6,3.9c0,0-0.5,1.2,0.1,4.8c-1.2-0.4-0.3,2.1-0.3,2.1c0,1.3,0.6,1.3,0.7,1.2
			c0.3,1.1,0.8,2.2,1.5,3.2c0,0.4,0,1.3-0.6,2.1c-1.3,1.4-5.9,2.7-5.9,2.7c-1.7,0.6-2.4,1.6-2.4,1.6c-1.4,2-2.1,11.6-2.5,14.2H36.2z
			"/>
	</g>
</g>
</svg>
