<?xml version="1.0" encoding="utf-8"?>
<!-- Generator: Adobe Illustrator 21.0.2, SVG Export Plug-In . SVG Version: 6.00 Build 0)  -->
<svg version="1.1" xmlns="http://www.w3.org/2000/svg" xmlns:xlink="http://www.w3.org/1999/xlink" x="0px" y="0px"
	 viewBox="0 0 599 499" style="enable-background:new 0 0 599 499;" xml:space="preserve">
<style type="text/css">
	.st0{display:none;}
	.st1{display:inline;opacity:0.9;fill:#8DC63F;}
	.st2{display:inline;fill:none;}
	.st3{display:inline;opacity:0.56;fill:#5E5E5E;}
	.st4{font-family:'Muli-Regular';}
	.st5{font-size:87.6851px;}
	.st6{opacity:0.9;}
	.st7{clip-path:url(#SVGID_2_);fill:#00A99D;}
	.st8{opacity:0.9;fill:#00A99D;}
	.st9{font-size:87.0382px;}
	.st10{display:inline;opacity:0.9;}
	.st11{clip-path:url(#SVGID_4_);fill:#F15A29;}
	.st12{display:inline;opacity:0.9;fill:#F15A29;}
	.st13{font-size:87.4708px;}
	.st14{fill:#00B0D8;}
	.st15{display:inline;opacity:0.9;fill:#00B0D8;}
	.st16{font-size:87.8443px;}
	.st17{clip-path:url(#SVGID_6_);fill:#FBB040;}
	.st18{fill:#FBB040;}
	.st19{display:inline;opacity:0.9;fill:#FBB040;}
	.st20{font-size:86.7993px;}
	.st21{display:inline;fill:#006699;stroke:#FFFFFF;stroke-miterlimit:10;}
	.st22{display:inline;opacity:0.56;fill:#5E5E5E;stroke:#FFFFFF;stroke-miterlimit:10;}
	.st23{display:inline;opacity:0.56;}
	.st24{clip-path:url(#SVGID_8_);fill:#5E5E5E;stroke:#FFFFFF;stroke-miterlimit:10;}
	.st25{clip-path:url(#SVGID_10_);fill:#5E5E5E;stroke:#FFFFFF;stroke-miterlimit:10;}
	.st26{fill:#5E5E5E;stroke:#FFFFFF;stroke-miterlimit:10;}
	.st27{clip-path:url(#SVGID_12_);fill:#5E5E5E;stroke:#FFFFFF;stroke-miterlimit:10;}
	.st28{display:inline;}
	.st29{fill:#414143;}
	.st30{fill:#F15A29;}
	.st31{fill:#8DC63F;}
</style>
<g id="Capa_3" class="st0">
	<path class="st1" d="M367.1,186.2c-5.6-7.4-12.7-13.1-21-16.8c-7.9-3.6-17.7-6.9-29.2-9.7v-47.4c13.2,2.7,26,8.5,38.3,17.3l1.5,1.1
		l15-33l-0.8-0.7c-5.9-5.3-13.6-9.9-23-13.4c-5.6-2.1-11.5-3.9-17.6-5.3c-3.5-0.9-7.1-1.7-10.7-2.3V45.9h-3.7v-0.5h-30.7v0.5h-1.7
		v30.1c-10.4,1.7-19.8,5-27.9,9.9c-8.1,5-14.8,11.2-19.6,18.5c-6.6,9.2-9.9,19.7-9.9,31.4c0,12.4,3,22.5,8.9,30
		c5.8,7.5,13.1,13.2,21.6,17.1c8.1,3.7,18.2,7.2,30,10.4v46c-16.9-1.8-32.6-8-46.7-18.2l-1.5-1.1l-6.1,13.4l-8.5,18.2l0.2,0.1
		l-0.6,1.3l0.9,0.7c14.9,11.7,34.8,18.8,59.3,21.3v29.7h1.7v0.1h29.2l1.5-0.1h3.7v-30.9c16.8-3,30.4-9.7,40.5-19.8
		c10.4-10.4,15.6-23.3,15.6-38.3C375.7,203.6,372.8,193.7,367.1,186.2z M286.5,150.8c-4.6-1.9-8.2-4.2-10.9-6.8
		c-2.9-2.9-4.3-6.5-4.3-11c0-5.1,1.4-9.3,4.4-12.7c2.6-3,6.2-5.4,10.8-6.9V150.8z M316.9,236.6v-34.7c4.2,1.9,7.5,4,9.8,6.3
		c2.5,2.5,3.8,5.6,3.8,9.4C330.4,227,326,233.3,316.9,236.6z"/>
	<path class="st2" d="M295.2,119.3c-3.2,3.7-4.7,8.3-4.7,13.7c0,4.9,1.6,8.9,4.7,12.1c3.2,3.2,7.6,5.8,13.4,8v-41.7
		C302.8,112.9,298.3,115.6,295.2,119.3z"/>
	<path class="st2" d="M291.2,199.6v39c11-3.3,16.5-10.3,16.5-21.1c0-4.2-1.4-7.6-4.2-10.4C300.8,204.3,296.7,201.8,291.2,199.6z"/>
	<text transform="matrix(1 0 0 1 153.5061 411.0605)" class="st3 st4 st5">Cuenta</text>
	<text transform="matrix(1 0 0 1 153.5061 411.0605)" class="st1 st4 st5">Cuenta</text>
</g>
<g id="Capa_2">
	<g class="st6">
		<g>
			<defs>
				<rect id="SVGID_1_" x="184.7" y="47.4" width="229.5" height="255.2"/>
			</defs>
			<clipPath id="SVGID_2_">
				<use xlink:href="#SVGID_1_"  style="overflow:visible;"/>
			</clipPath>
			<path class="st7" d="M366.7,153.3C333.9,82.7,316.8,55.9,263.2,57c-19.1,0.4-14.5-13.8-29-8.4c-14.5,5.4-2.1,13.3-17,25.5
				c-41.7,34.3-37.9,66-18.5,141.5c8.2,31.8-19.7,33.4-8.7,64.2c8,22.5,67.3,31.9,129.8,8.7c62.5-23.2,102-69.2,93.9-91.7
				C402.8,165.9,380.5,183,366.7,153.3L366.7,153.3z M313.1,269.5c-55.8,20.7-101.7,8.5-103.6,3.1c-3.3-9.3,18-40.5,81.8-64.2
				s99.4-14.9,103.2-4.5C396.6,210.1,368.9,248.8,313.1,269.5L313.1,269.5z M295.1,219.2c-29.2,10.8-49.5,23.2-62.6,34.4
				c9.2,8.4,26.5,10.5,43.8,4c22-8.1,35.4-26.8,30.1-41.8c-0.1-0.2-0.2-0.3-0.2-0.5C302.6,216.5,298.9,217.8,295.1,219.2
				L295.1,219.2z M295.1,219.2"/>
		</g>
	</g>
	<text transform="matrix(1 0 0 1 16.4995 410.8721)" class="st8 st4 st9">Notificaciones</text>
</g>
<g id="Capa_5" class="st0">
	<g class="st10">
		<g>
			<defs>
				<rect id="SVGID_3_" x="191.7" y="44" width="215.6" height="262"/>
			</defs>
			<clipPath id="SVGID_4_">
				<use xlink:href="#SVGID_3_"  style="overflow:visible;"/>
			</clipPath>
			<path class="st11" d="M407.9,247.4l-0.9,1.1c-28.6,34.3-66.7,53.2-107.2,53.2c-40.5,0-78.6-18.9-107.3-53.2l-0.8-1.1l0.2-1.3
				c5.5-36,24.3-65,53-81.5l2-1.2l1.6,1.7c13.5,14.2,31.7,22,51.2,22c19.5,0,37.7-7.8,51.2-22l1.6-1.7l2.1,1.2
				c28.6,16.6,47.5,45.5,53,81.5L407.9,247.4z M299.8,172.7c35.5,0,64.3-28.9,64.3-64.4c0-35.5-28.9-64.3-64.3-64.3
				c-35.5,0-64.3,28.9-64.3,64.3C235.4,143.8,264.3,172.7,299.8,172.7L299.8,172.7z M361,241.3"/>
		</g>
	</g>
	<text transform="matrix(1 0 0 1 194.9304 410.998)" class="st12 st4 st13">Perfil</text>
</g>
<g id="Capa_1" class="st0">
	<g class="st10">
		<path class="st14" d="M426.9,162l-20.6-20.6c-2.9-2.9-6.8-4.5-10.8-4.5c-4.1,0-8,1.6-10.8,4.5l-5.7,5.7V39.9H167.7v270.3H379
			v-77.8l47.9-48.7C432.8,177.7,432.8,168,426.9,162L426.9,162z M356,287.2H190.6V62.8H356v107.8l-20.1,20.1V175H212.6v15.8h123.2
			l-36.4,36.4c-1.8,1.8-3.1,4-3.9,6.5l-8.7,29.4c-1.6,5.4-0.1,11.2,3.9,15.2c2.9,2.9,6.8,4.5,10.8,4.5c1.5,0,2.9-0.2,4.4-0.6
			l29.4-8.8c2.4-0.7,4.7-2,6.5-3.8l14.3-14.3V287.2z M330.3,259.1l-29.4,8.8l8.8-29.4l66-66.1l20.7,20.7L330.3,259.1z M403.1,185.6
			L382.6,165l12.3-12.3l20.6,20.6L403.1,185.6z M403.1,185.6"/>
		<rect x="212.6" y="90.6" class="st14" width="123.3" height="15.8"/>
		<rect x="212.6" y="132.2" class="st14" width="123.3" height="15.8"/>
	</g>
	<text transform="matrix(1 0 0 1 181.4846 411.1069)" class="st15 st4 st16">Blog</text>
</g>
<g id="Capa_4" class="st0">
	<g class="st10">
		<g>
			<defs>
				<rect id="SVGID_5_" x="161.3" y="46.2" width="276.3" height="257.6"/>
			</defs>
			<clipPath id="SVGID_6_">
				<use xlink:href="#SVGID_5_"  style="overflow:visible;"/>
			</clipPath>
			<path class="st17" d="M432.6,162.3l-41.8-41.8V72.2c0-8.7-7.1-15.8-15.8-15.8c-8.7,0-15.8,7.1-15.8,15.8v16.7L328,57.7
				c-15.4-15.4-42.2-15.4-57.5,0L166,162.3c-6.2,6.2-6.2,16.2,0,22.4c6.2,6.2,16.2,6.2,22.4,0L292.9,80.1c3.4-3.4,9.4-3.4,12.8,0
				l104.5,104.6c3.1,3.1,7.1,4.6,11.2,4.6c4,0,8.1-1.5,11.2-4.6C438.8,178.5,438.8,168.5,432.6,162.3L432.6,162.3z M432.6,162.3"/>
		</g>
		<path class="st18" d="M304.8,110.1c-3-3-8-3-11,0l-92,91.9c-1.5,1.4-2.3,3.4-2.3,5.5v67.1c0,15.7,12.8,28.5,28.5,28.5h45.5v-70.5
			H325v70.5h45.5c15.7,0,28.5-12.8,28.5-28.5v-67.1c0-2.1-0.8-4-2.3-5.5L304.8,110.1z M304.8,110.1"/>
	</g>
	<text transform="matrix(1 0 0 1 195.9504 410.8027)" class="st19 st4 st20">Inicio</text>
</g>
<g id="Capa_6" class="st0">
	<circle class="st21" cx="299.5" cy="175" r="27.6"/>
</g>
<g id="Capa_3_copia" class="st0">
	<text transform="matrix(1 0 0 1 153.5061 411.0605)" class="st3 st4 st5">Cuenta</text>
	<path class="st22" d="M367.1,186.2c-5.6-7.4-12.7-13.1-21-16.8c-7.9-3.6-17.7-6.9-29.2-9.7v-47.4c13.2,2.7,26,8.5,38.3,17.3
		l1.5,1.1l15-33l-0.8-0.7c-5.9-5.3-13.6-9.9-23-13.4c-5.6-2.1-11.5-3.9-17.6-5.3c-3.5-0.9-7.1-1.7-10.7-2.3V45.9h-3.7v-0.5h-30.7
		v0.5h-1.7v30.1c-10.4,1.7-19.8,5-27.9,9.9c-8.1,5-14.8,11.2-19.6,18.5c-6.6,9.2-9.9,19.7-9.9,31.4c0,12.4,3,22.5,8.9,30
		c5.8,7.5,13.1,13.2,21.6,17.1c8.1,3.7,18.2,7.2,30,10.4v46c-16.9-1.8-32.6-8-46.7-18.2l-1.5-1.1l-6.1,13.4l-8.5,18.2l0.2,0.1
		l-0.6,1.3l0.9,0.7c14.9,11.7,34.8,18.8,59.3,21.3v29.7h1.7v0.1h29.2l1.5-0.1h3.7v-30.9c16.8-3,30.4-9.7,40.5-19.8
		c10.4-10.4,15.6-23.3,15.6-38.3C375.7,203.6,372.8,193.7,367.1,186.2z M286.5,150.8c-4.6-1.9-8.2-4.2-10.9-6.8
		c-2.9-2.9-4.3-6.5-4.3-11c0-5.1,1.4-9.3,4.4-12.7c2.6-3,6.2-5.4,10.8-6.9V150.8z M316.9,236.6v-34.7c4.2,1.9,7.5,4,9.8,6.3
		c2.5,2.5,3.8,5.6,3.8,9.4C330.4,227,326,233.3,316.9,236.6z"/>
	<path class="st2" d="M295.2,119.3c-3.2,3.7-4.7,8.3-4.7,13.7c0,4.9,1.6,8.9,4.7,12.1c3.2,3.2,7.6,5.8,13.4,8v-41.7
		C302.8,112.9,298.3,115.6,295.2,119.3z"/>
	<path class="st2" d="M291.2,199.6v39c11-3.3,16.5-10.3,16.5-21.1c0-4.2-1.4-7.6-4.2-10.4C300.8,204.3,296.7,201.8,291.2,199.6z"/>
</g>
<g id="Capa_2_copia" class="st0">
	<text transform="matrix(1 0 0 1 16.4995 410.8721)" class="st3 st4 st9">Notificaciones</text>
	<g class="st23">
		<g>
			<defs>
				<rect id="SVGID_7_" x="184.7" y="47.4" width="229.5" height="255.2"/>
			</defs>
			<clipPath id="SVGID_8_">
				<use xlink:href="#SVGID_7_"  style="overflow:visible;"/>
			</clipPath>
			<path class="st24" d="M366.7,153.3C333.9,82.7,316.8,55.9,263.2,57c-19.1,0.4-14.5-13.8-29-8.4c-14.5,5.4-2.1,13.3-17,25.5
				c-41.7,34.3-37.9,66-18.5,141.5c8.2,31.8-19.7,33.4-8.7,64.2c8,22.5,67.3,31.9,129.8,8.7c62.5-23.2,102-69.2,93.9-91.7
				C402.8,165.9,380.5,183,366.7,153.3L366.7,153.3z M313.1,269.5c-55.8,20.7-101.7,8.5-103.6,3.1c-3.3-9.3,18-40.5,81.8-64.2
				s99.4-14.9,103.2-4.5C396.6,210.1,368.9,248.8,313.1,269.5L313.1,269.5z M295.1,219.2c-29.2,10.8-49.5,23.2-62.6,34.4
				c9.2,8.4,26.5,10.5,43.8,4c22-8.1,35.4-26.8,30.1-41.8c-0.1-0.2-0.2-0.3-0.2-0.5C302.6,216.5,298.9,217.8,295.1,219.2
				L295.1,219.2z M295.1,219.2"/>
		</g>
	</g>
</g>
<g id="Capa_5_copia" class="st0">
	<text transform="matrix(1 0 0 1 194.9304 410.998)" class="st3 st4 st13">Perfil</text>
	<g class="st23">
		<g>
			<defs>
				<rect id="SVGID_9_" x="191.7" y="44" width="215.6" height="262"/>
			</defs>
			<clipPath id="SVGID_10_">
				<use xlink:href="#SVGID_9_"  style="overflow:visible;"/>
			</clipPath>
			<path class="st25" d="M407.9,247.4l-0.9,1.1c-28.6,34.3-66.7,53.2-107.2,53.2c-40.5,0-78.6-18.9-107.3-53.2l-0.8-1.1l0.2-1.3
				c5.5-36,24.3-65,53-81.5l2-1.2l1.6,1.7c13.5,14.2,31.7,22,51.2,22c19.5,0,37.7-7.8,51.2-22l1.6-1.7l2.1,1.2
				c28.6,16.6,47.5,45.5,53,81.5L407.9,247.4z M299.8,172.7c35.5,0,64.3-28.9,64.3-64.4c0-35.5-28.9-64.3-64.3-64.3
				c-35.5,0-64.3,28.9-64.3,64.3C235.4,143.8,264.3,172.7,299.8,172.7L299.8,172.7z M361,241.3"/>
		</g>
	</g>
</g>
<g id="Capa_1_copia" class="st0">
	<text transform="matrix(1 0 0 1 181.4846 411.1069)" class="st3 st4 st16">Blog</text>
	<g class="st23">
		<path class="st26" d="M426.9,162l-20.6-20.6c-2.9-2.9-6.8-4.5-10.8-4.5c-4.1,0-8,1.6-10.8,4.5l-5.7,5.7V39.9H167.7v270.3H379
			v-77.8l47.9-48.7C432.8,177.7,432.8,168,426.9,162L426.9,162z M356,287.2H190.6V62.8H356v107.8l-20.1,20.1V175H212.6v15.8h123.2
			l-36.4,36.4c-1.8,1.8-3.1,4-3.9,6.5l-8.7,29.4c-1.6,5.4-0.1,11.2,3.9,15.2c2.9,2.9,6.8,4.5,10.8,4.5c1.5,0,2.9-0.2,4.4-0.6
			l29.4-8.8c2.4-0.7,4.7-2,6.5-3.8l14.3-14.3V287.2z M330.3,259.1l-29.4,8.8l8.8-29.4l66-66.1l20.7,20.7L330.3,259.1z M403.1,185.6
			L382.6,165l12.3-12.3l20.6,20.6L403.1,185.6z M403.1,185.6"/>
		<rect x="212.6" y="90.6" class="st26" width="123.3" height="15.8"/>
		<rect x="212.6" y="132.2" class="st26" width="123.3" height="15.8"/>
	</g>
</g>
<g id="Capa_4_copia" class="st0">
	<text transform="matrix(1 0 0 1 195.9504 410.8027)" class="st22 st4 st20">Inicio</text>
	<g class="st23">
		<g>
			<defs>
				<rect id="SVGID_11_" x="161.3" y="46.2" width="276.3" height="257.6"/>
			</defs>
			<clipPath id="SVGID_12_">
				<use xlink:href="#SVGID_11_"  style="overflow:visible;"/>
			</clipPath>
			<path class="st27" d="M432.6,162.3l-41.8-41.8V72.2c0-8.7-7.1-15.8-15.8-15.8c-8.7,0-15.8,7.1-15.8,15.8v16.7L328,57.7
				c-15.4-15.4-42.2-15.4-57.5,0L166,162.3c-6.2,6.2-6.2,16.2,0,22.4c6.2,6.2,16.2,6.2,22.4,0L292.9,80.1c3.4-3.4,9.4-3.4,12.8,0
				l104.5,104.6c3.1,3.1,7.1,4.6,11.2,4.6c4,0,8.1-1.5,11.2-4.6C438.8,178.5,438.8,168.5,432.6,162.3L432.6,162.3z M432.6,162.3"/>
		</g>
		<path class="st26" d="M304.8,110.1c-3-3-8-3-11,0l-92,91.9c-1.5,1.4-2.3,3.4-2.3,5.5v67.1c0,15.7,12.8,28.5,28.5,28.5h45.5v-70.5
			H325v70.5h45.5c15.7,0,28.5-12.8,28.5-28.5v-67.1c0-2.1-0.8-4-2.3-5.5L304.8,110.1z M304.8,110.1"/>
	</g>
</g>
<g id="Capa_6_copia" class="st0">
	<circle class="st21" cx="312" cy="175" r="27.6"/>
</g>
<g id="Capa_7" class="st0">
	<g class="st28">
		<path class="st29" d="M535.6,304.5c-1.5,1.1-3.2,1.5-4.8,1.5c-1.7,0-3.4-0.6-4.8-1.7c-1.5-1.1-2.7-2.5-3.4-4l-25.9-66.3
			c-0.8-2.3-0.8-4.6,0.2-6.7c1.1-2.3,2.7-3.8,4.8-4.8c2.3-0.8,4.6-0.8,6.7,0.2c2.3,1.1,3.8,2.7,4.6,5.1l17.5,45.1l17.5-45.1
			c0.8-2.3,2.5-4,4.6-5.1c2.3-1.1,4.4-1.1,6.7-0.2c2.3,1.1,4,2.5,4.8,4.8c1.1,2.3,1.1,4.4,0.2,6.7l-25.7,66.1
			C538.3,301.9,537,303.4,535.6,304.5z"/>
		<path class="st29" d="M579.4,242.8c2.3,0,4.2,0.8,5.7,2.5c1.5,1.7,2.3,3.8,2.5,6.1v46.5c0,2.3-0.8,4.4-2.3,5.9
			c-1.5,1.7-3.6,2.5-6.1,2.7c-2.3,0-4.2-0.6-5.7-2.1c-1.7-1.5-2.5-3.4-2.9-5.9V251c0.2-2.3,1.1-4.2,2.7-5.7
			C575.1,243.6,577,242.8,579.4,242.8z"/>
		<path class="st30" d="M579.4,222.6c2.3,0,4.2,0.8,5.9,2.5c1.7,1.7,2.5,3.8,2.5,5.9c0,2.3-0.8,4.2-2.5,5.9
			c-1.7,1.7-3.6,2.5-5.9,2.5c-2.5,0-4.6-0.8-6.3-2.5c-1.7-1.5-2.5-3.8-2.5-6.5c0-2.3,1.1-4.2,2.7-5.7
			C575.1,223.4,577,222.6,579.4,222.6z"/>
		<path class="st29" d="M641.3,242.8c2.3,1.1,4,2.5,4.8,4.6c1.1,2.1,1.1,4.4,0,6.7l-17.7,46.5c-0.4,1.1-1.5,2.1-2.7,3.6
			c-1.5,1.3-3.2,2.1-5.3,2.1c-1.7,0-3.4-0.4-5.1-1.3c-1.7-0.8-2.7-2.3-3.4-4.2l-17.9-46.5c-1.1-2.3-1.1-4.4,0-6.7
			c1.1-2.1,2.5-3.8,4.8-4.6c2.3-0.8,4.4-0.8,6.7,0.2c2.1,1.1,3.8,2.5,4.8,4.8l9.7,25.3l9.7-25.3c1.1-2.3,2.5-4,4.8-4.8
			C636.8,241.9,638.9,241.7,641.3,242.8z"/>
		<path class="st29" d="M678.9,243.4c4.2,0,8.4,0.8,12.2,2.5c3.8,1.7,7.2,4,10.1,6.9s5.3,6.3,6.9,10.1c1.7,3.8,2.5,8,2.5,12.4
			c0,4.4-0.8,8.4-2.5,12.2c-1.7,3.8-4,7.2-6.7,10.1c-2.9,2.9-6.1,5.3-10.1,6.7c-3.8,1.7-8,2.5-12.4,2.5c-4.4,0-8.4-0.8-12.4-2.3
			c-3.8-1.5-7.2-3.8-10.1-6.7s-5.3-6.1-6.7-10.1c-1.7-3.8-2.5-8-2.5-12.6c0-4.4,0.8-8.4,2.5-12.2s3.8-7.2,6.7-10.1
			c2.9-2.9,6.3-5.1,10.1-6.7C670.3,244.7,674.5,243.6,678.9,243.4z M678.9,260.7c-2.1,0-4,0.4-5.7,1.1c-1.7,0.8-3.4,1.7-4.6,3.2
			c-1.3,1.3-2.5,2.9-3.2,4.6c-0.8,1.9-1.3,3.8-1.3,5.9c0,2.1,0.4,4,1.3,5.7c0.8,1.9,1.9,3.4,3.2,4.6c1.3,1.3,2.9,2.5,4.6,3.2
			c1.7,0.8,3.6,1.3,5.7,1.3s4-0.4,5.7-1.3c1.9-0.8,3.4-1.9,4.6-3.2c1.3-1.3,2.3-2.9,3.2-4.6c0.8-1.9,1.3-3.8,1.3-5.7
			c-0.2-4-1.7-7.4-4.4-10.3C686.7,262.4,683.2,260.9,678.9,260.7z"/>
		<path class="st30" d="M746.9,243.4c4.2,0,8.4,0.8,12.2,2.5c3.8,1.7,7.2,4,10.1,6.9s5.3,6.3,6.9,10.1c1.7,3.8,2.5,8,2.5,12.4
			c0,4.4-0.8,8.4-2.5,12.2c-1.7,3.8-4,7.2-6.7,10.1c-2.9,2.9-6.3,5.3-10.1,6.7c-3.8,1.7-8,2.5-12.4,2.5c-4.4,0-8.4-0.8-12.4-2.3
			c-3.8-1.5-7.2-3.8-10.1-6.7c-2.9-2.9-5.3-6.1-6.7-10.1c-1.7-3.8-2.5-8-2.5-12.6c0-4.4,0.8-8.4,2.5-12.2s3.8-7.2,6.7-10.1
			c2.9-2.9,6.3-5.1,10.1-6.7C738.3,244.7,742.3,243.6,746.9,243.4z M746.9,260.7c-2.1,0-4,0.4-5.7,1.1c-1.7,0.8-3.4,1.7-4.6,3.2
			c-1.3,1.3-2.5,2.9-3.2,4.6c-0.8,1.9-1.3,3.8-1.3,5.9c0,2.1,0.4,4,1.3,5.7c0.8,1.9,1.9,3.4,3.2,4.6c1.3,1.3,2.9,2.5,4.6,3.2
			c1.7,0.8,3.6,1.3,5.7,1.3c2.1,0,4-0.4,5.7-1.3c1.9-0.8,3.4-1.9,4.6-3.2c1.3-1.3,2.3-2.9,3.2-4.6c0.8-1.9,1.3-3.8,1.3-5.7
			c-0.2-4-1.7-7.4-4.4-10.3C754.5,262.4,751.2,260.9,746.9,260.7z"/>
		<path class="st30" d="M834.3,291c1.7,1.7,2.5,3.8,2.5,6.3c0,2.3-0.8,4.4-2.5,6.3c-1.7,1.5-3.8,2.5-6.1,2.5
			c-2.3,0.2-4.4-0.6-6.3-2.5l-19.8-19.8v13.5c0,2.3-0.8,4.4-2.5,6.1c-1.7,1.9-3.8,2.7-6.1,2.7c-2.3,0-4.4-0.8-6.1-2.5
			c-1.9-1.7-2.7-3.8-2.7-6.3v-66.5c0-2.3,0.8-4.2,2.5-6.1s3.8-2.7,6.3-2.7s4.6,0.8,6.3,2.5s2.5,3.8,2.5,6.3v33.1l19.8-19.8
			c1.7-1.7,3.8-2.5,6.1-2.5c2.3,0,4.4,0.8,6.3,2.5c1.7,1.7,2.5,3.8,2.5,6.3c0,2.3-0.8,4.4-2.5,6.3l-17.5,17.5L834.3,291z"/>
		<path class="st30" d="M673.9,44.7v138.5c3.4,0.2,6.7,0.2,10.1,0.2c11.2,0,22.1-0.8,32.4-2.1V44.7H673.9z M692.4,160h-13.1V147
			h13.1V160z M692.4,131.8h-13.1v-13.1h13.1V131.8z M692.4,103.4h-13.1V90.3h13.1V103.4z M692.4,75.2h-13.1V61.9h13.1V75.2z
			 M710.7,160h-13.1V147h13.1V160z M710.7,131.8h-13.1v-13.1h13.1V131.8z M710.7,103.4h-13.1V90.3h13.1V103.4z M710.7,75.2h-13.1
			V61.9h13.1V75.2z"/>
		<path class="st31" d="M757.9,118.1l-31.6,27.2h7.8v32.6c19.2-3.6,35.8-8.8,48.4-15.2v-17.5h7.2L757.9,118.1z M750.5,163.4h-8.4
			V155h8.4V163.4z M750.5,153.7h-8.4v-8.4h8.4V153.7z M759.8,163.4h-8.4V155h8.4V163.4z M759.8,153.7h-8.4v-8.4h8.4V153.7z"/>
		<path class="st18" d="M550.7,77.7v75.2c7.6,6.5,18.7,12.4,32.6,17.1V77.7H550.7z M573,134.1H560v-13.1H573V134.1z M573,105.9H560
			V92.9H573V105.9z"/>
		<path class="st29" d="M668.4,189.3c-69.9-1.7-126.5-23.2-130.5-48.6c-0.2,1.1-0.4,2.1-0.4,3.2c-0.6,27,57.9,50.1,130.8,51.8
			s132.2-18.7,132.9-45.7c0-1.1,0-2.1-0.2-3.2C795.8,172,738.3,191,668.4,189.3z"/>
		<path class="st14" d="M598.9,102.8v70.5c15.8,4.4,34.1,7.6,54.3,9.1V69.5L598.9,102.8z M623.1,155.8h-13.1v-13.1h13.1V155.8z
			 M623.1,127.4h-13.1v-13.1h13.1V127.4z M641.5,155.8h-13.1v-13.1h13.1V155.8z M641.5,127.4h-13.1v-13.1h13.1V127.4z"/>
		<g>
			<path class="st29" d="M692.4,128c0,0-22.1,17.9-28.2,41.3c-7.8-23.2-32.2-39.6-32.2-39.6c46.5,44.6,13.3,92.9,13.3,92.9
				c11.2-9.5,17.1-18.9,19.8-28c3.4,9.1,10.3,18.3,22.5,27.2C687.6,221.9,650.1,176.7,692.4,128z M663.4,151.4c5.1,0,9.3-4,9.3-9.3
				c0-5.1-4-9.3-9.3-9.3c-5.1,0-9.3,4.2-9.3,9.3C654.1,147.2,658.3,151.4,663.4,151.4z"/>
		</g>
	</g>
</g>
</svg>
