{
    "cordova-plugin-whitelist": {
        "source": {
            "type": "registry",
            "id": "cordova-plugin-whitelist@1.2.2"
        },
        "is_top_level": true,
        "variables": {}
    },
    "phonegap-plugin-push": {
        "source": {
            "type": "registry",
            "id": "phonegap-plugin-push"
        },
        "is_top_level": true,
        "variables": {
            "SENDER_ID": "208107854316"
        }
    },
    "cordova-plugin-cocoapod-support": {
        "source": {
            "type": "registry",
            "id": "cordova-plugin-cocoapod-support@^1.3.0"
        },
        "is_top_level": true,
        "variables": {}
    },
    "cordova-plugin-firebase": {
        "source": {
            "type": "registry",
            "id": "cordova-plugin-firebase@^0.1.22"
        },
        "is_top_level": true,
        "variables": {}
    }
}